,text
0,"RT @iam_babygir: #ForaLucas, devemos ser coerentes com o jogo do Arthur la dentro, puxar voto pra eliminar o Scooby agora é burrice"
1,"n achei que phasmofobia ia ser tão pica, mas o jogo é bom dms"
2,"@antoniotabet Lina é muito covarde e jogo sujo. Ela representar algo importante não me faz passar pano para o que ela mostrou na casa."
3,Quase soquei meu notebook por causa daquele jogo da cobra q tem q engolir a fruta :))
4,"RT @Paulas19820410: Você pode até gostar ou não do Arthur, mas tem que admitir que a leitura de jogo dele é algo surreal. Nunca vi um jogad…"
5,"Bom, é isso, oficialmente fechei Earthbound pela primeira vez na vida. Tô feliz e contente, e amei o jogo em muitos aspectos, mas muito sono pra elaborar, mas obrigado quem me incentivou e acompanhou essa jornada, amo vcs https://t.co/d9k2Q8mGGF"
6,RT @samiramis69: @portaldopaulo Lina manipuladora e falsa. Usa a Natty e Jessi. Estas duas serão indicadas por causa dela. Lina está usando…
7,"RT @bhadidzx: antigamente as provas de resistência era até a exaustão e hoje entregam pra rival no jogo, e ainda acham ruim o arthur reclam…"
8,@vaidesmaiar BBB é um jogo. #forascooby
9,"Único que realmente foi pra jogar e não fazer caridade. Sua visão de jogo é incrível!!! ARTHUR TINHA RAZÃO https://t.co/jjLw0B72ez"
10,"RT @Palestranalytic: Rony 🆚️ Cristiano Ronaldo em 2022: ⭐ Jogos: 15 (13) x 13 (12) ⚽️ Gols: 4 x 4 🅰️ Assistências: 2 x 1 🥅 Chutes por jogo:…"
11,@johnbiansei @Lua00946370 @plantasarradora Nossa mas a Jessi também não pode beber muito q não fica muito atrás da Natália não kkkkkkkk além de chorar igual uma perturbada ainda conta o jogo dos outros kkkk
12,@portaldopaulo Lina manipuladora e falsa. Usa a Natty e Jessi. Estas duas serão indicadas por causa dela. Lina está usando jogo baixo.
13,"RT @CleydeSilvah: @Silva_DG Torcida da Linna ontem: “Que lindo esse gesto dos meninos e empatia nem tudo é sobre jogo,são pessoas..contem a…"
14,"RT @Aguiarthur: Arthur tá dizendo que pra ele o Lucas sai pois fez um jogo muito confuso, trocou de aliados várias vezes durante sua trajet…"
16,"RT @eliasjabbour: Esse jogo nos interessa? Bolsonaro com essa questão toda em torno do Lollapalooza lança uma primeira cartada estratégica…"
17,Portugal defronta a Macedónia do Norte na terça-feira. https://t.co/okmz7K2xxM
18,"É me apaguei, insisti num jogo perigoso e já sabia que ia me machucar … e vamos de se recompor o seguir a vida !!"
19,85' | 1x3 - Jogo parado após cachorro invadir o campo e morder as genitálias de Courtois. Atendimento ainda não começou pois os paramédicos torcem para o adversário e estavam rindo.
20,"Mas aí essa fala não se enquadra na Lais, a Lais não sabia de nada, ela apenas não foi com o jogo dele. Aliás a Lais saiu e tá respeitando muito isso, ganhou muito meu respeito aqui fora. https://t.co/UXXxeaIYM8"
21,"PA E SCOOBY, SÃO SUJEITO HOMEM, JOGA COM A ESSÊNCIA E CARÁTER, SEM VITIMISMO, SEM DRAMA, SEM COVARDIA,  TÃO SEMPRE PRONTO PRO COMBATE. ( CARÁTER E ESSÊNCIA  ACIMA DE TUDO) ISSO SIM, É  EXEMPLO PRO MUNDO, ATLETAS, Q PASSA COMO É SER NUM JOGO E NA VIDA  #FORALUCAS  🏄🇧🇷 https://t.co/cR8JtAAVVm"
22,"tiroteio final do jogo vai ser 1vs1 estilo bonanza em valentine ou rhodes aonde a gnt mata o dutch por todas as idéias idiotas que ele teve até hoje, não aceito menos (sem spoiler pls)"
23,"RT @Mararayan: A vaca pode até tá magra, mas o capim tá crescendo, tudo é fase e o tempo faz o jogo virar 😉🎡"
24,"RT @Mariaarretada_: O Lucas barão não merece sair antes do Eli véi, vai tomar no cu, muito menos pra os anti-jogo, principalmente o Scooby,…"
25,"@tuanykarinee @vaidesmaiar Pois até os verificados já estão 'soltando a mão' da sua fav por ter dado uma facada nas costas de quem a PRESENTEOU com a liderança! Se era esse tipo de jogo que o público gostava no passado, acho que a coisa mudou viu... https://t.co/zQkwZGgZw2"
26,"Scooby e Lucas: um dos dois vai ser eliminado dependendo do jogo da discordia Linna: corre o risco de paredão DG: boas energias,não vejo muita coisa mas será a mesma Eli: mais uma briga com Nat,MDS 😱 Gustavo: embate com Eli, mas ele será um ótimo aliado de Linna Eslo: venia"
27,"RT @Naoto_Art: Aqui o design das outras coisas, o último é mais pra mostrar os itens q ela usaria no jogo https://t.co/ZzH8yPVeli"
28,Cartão amarelo para Bidu. Ele está suspenso para o próximo jogo contra o River Plate.
29,RT @fabiojusttino: O melhor jogo do Botafogo sempre será o próximo. O melhor ano do Botafogo sempre será o próximo.
30,"Agora ele serve como moeda de troca por ter renovado MASSSS Ele entregou copa do brasil, gaúcho e impediu outro zagueiro de pegar ritmo de jogo. Direção burra demais sim. https://t.co/48vBsWtOzF"
31,"@ZoomBar10 Cria um jogo qie da tudo certo. Apesar de eu não ter ido o pessoal parece reclamar que as bicha tá sem interagir. Querendo ficar com uma pessoa só. Se houver algo que faça mais duas pessoas interagirem. Logo o BO tá formado."
32,"RT @GMonteiroRJ: FANTÁSTICO ISSO PASSARÁ NO AR? Pessoal, minha carreira e liberdade estão em jogo. Compartilham ao máximo, curtam e comente…"
33,"RT @PriTuitaa: Nao, mas a Lina indicando o P.A por estratégia e pensando no jogo, indo contra o discurso dos 3 e da torcida dela de agir co…"
34,RT @geglobo: 🦁 Sport vence o CRB e se classifica para final da Copa do Nordeste https://t.co/iHOFV3xBc6 https://t.co/sZq05fGdMy
35,"@gabrielrscc @Palmeiras Mas pra isso tem que pedir autorização pro DONO do estádio, né? E se o dono quiser fazer igual o dono do chiqueiro e não autorizar o jogo?"
36,"RT @Aguiarthur: Diante do cenário atual e sendo coerentes com o jogo do próprio Arthur que hoje votou no Lucas pra proteger os meninos, nós…"
37,RT @beardguysp: dependendo do andar da carruagem eu jogo essa inteira e uns videozinhos nos próximos dias. https://t.co/kQyoGcTyqr
38,"O rapaz que pra não ficar perdendo ponto em jogo MOBILE puxa o emulador ""tela + jogabilidade infinitamente melhor"" realmente não tem interesse em ser bom, ele já se conformou que realmente não troca"
39,"@ZAMENZA Exatamente! Na verdade, ela queria fazer um paredão dos 3, pra conseguir eliminar um por um, e deu um tiro no pé! Sem visão nenhuma de jogo, já que tem uma linha do tempo acontecendo, muito claro, ela que não quer enxergar ou admitir!"
40,@PrincessOrlean @votalhada @webtvbrasileira Anti-jogo
41,"Alguém mais joga Dots? Eu adoro! Essa é minha pontuação atual. Às vezes jogo por horas e fico meses sem jogar, mas vou indo assim há anos. Quando estou sem internet, não tenho nada para ler ou fazer e quero me distrair, eu jogo Dots. É off-line. https://t.co/1CSiYjbgZF"
42,"RT @GiGuimaraes18: @aru_acosta Estou falando isso há semanas, o pãozinho massacrou o Rodrigo que só pensava em jogo e é o que ele próprio s…"
43,dependendo do andar da carruagem eu jogo essa inteira e uns videozinhos nos próximos dias. https://t.co/kQyoGcTyqr
44,"@andreilalinda @gessicakayane Visão deturpada, o Arthur entrou cancelado e conseguiu virar o jogo, só é ler os comentários do vídeo de chamada dele, todo mundo dizendo que no primeiro paredão que ele caísse iam tirar ele"
45,Mas me juraram que a defesa tá/tava uma peneira por um jogo isolado contra o Pouso Alegre https://t.co/MYwkKxYGEm
46,"RT @CaioFreduzeski: BEM FEITO caridade é a pqp isso é um jogo não criança esperança .... Arthur tinha razão !"
47,"RT @ZAMENZA: Com três semanas de #BBB22, eu disse que o Arthur estava se transformando no Rodrigo. Me chamaram de maluco e de não entender…"
48,"Achei ingratidão da Lina emparedar PA, bom que a gnt viu o jogo dela,  um tiro no pé hj, mas foi produtivo!! #ForaLucas #linaingrata #Arthurcampeão"
49,"RT @Dantinhas: E pra terminar a noite, um brinde à péssima visão de jogo externo de Lina kkkkkk #BBB22 https://t.co/bbj3Zrnj0U"
